{
    "key": "group_586443b06c97d",
    "title": "Tathata Training Center",
    "fields": [
        {
            "placement": "left",
            "endpoint": 0,
            "key": "field_586443b0840b6",
            "label": "Featured Sections",
            "name": "",
            "type": "tab",
            "instructions": "",
            "required": 0,
            "conditional_logic": 0,
            "wrapper": {
                "width": "",
                "class": "",
                "id": ""
            }
        },
        {
            "sub_fields": [
                {
                    "default_value": "",
                    "maxlength": "",
                    "placeholder": "",
                    "prepend": "",
                    "append": "",
                    "key": "field_586443b098ad7",
                    "label": "Title",
                    "name": "th-fs_title",
                    "type": "text",
                    "instructions": "Give this section a title",
                    "required": 0,
                    "conditional_logic": 0,
                    "wrapper": {
                        "width": "",
                        "class": "",
                        "id": ""
                    },
                    "readonly": 0,
                    "disabled": 0
                },
                {
                    "default_value": "",
                    "maxlength": "",
                    "placeholder": "",
                    "prepend": "",
                    "append": "",
                    "key": "field_586443b098b84",
                    "label": "Content",
                    "name": "th-fs_content",
                    "type": "text",
                    "instructions": "Give this section content",
                    "required": 0,
                    "conditional_logic": 0,
                    "wrapper": {
                        "width": "",
                        "class": "",
                        "id": ""
                    }
                },
                {
                    "default_value": "",
                    "maxlength": "",
                    "placeholder": "",
                    "prepend": "#",
                    "append": "",
                    "key": "field_586443b098c72",
                    "label": "Link",
                    "name": "th-fs_link",
                    "type": "text",
                    "instructions": "The ID of the page section this will link to",
                    "required": 0,
                    "conditional_logic": 0,
                    "wrapper": {
                        "width": "",
                        "class": "",
                        "id": ""
                    },
                    "readonly": 0,
                    "disabled": 0
                },
                {
                    "return_format": "url",
                    "preview_size": "thumbnail",
                    "library": "all",
                    "min_width": 100,
                    "min_height": 100,
                    "min_size": "",
                    "max_width": 500,
                    "max_height": 500,
                    "max_size": "",
                    "mime_types": "",
                    "key": "field_586443b099d0b",
                    "label": "Background image",
                    "name": "th-fs_background",
                    "type": "image",
                    "instructions": "Give this section a background image",
                    "required": 0,
                    "conditional_logic": 0,
                    "wrapper": {
                        "width": "",
                        "class": "",
                        "id": ""
                    }
                }
            ],
            "min": 0,
            "max": 4,
            "layout": "block",
            "button_label": "Add Feature",
            "collapsed": "field_586443b098ad7",
            "key": "field_586443b084149",
            "label": "Featured Sections",
            "name": "th_featured_sections",
            "type": "repeater",
            "instructions": "Add the featured section cards",
            "required": 0,
            "conditional_logic": 0,
            "wrapper": {
                "width": "",
                "class": "",
                "id": ""
            }
        },
        {
            "return_format": "url",
            "preview_size": "thumbnail",
            "library": "all",
            "min_width": "",
            "min_height": "",
            "min_size": "",
            "max_width": "",
            "max_height": "",
            "max_size": "",
            "mime_types": "",
            "key": "field_586443b0842a5",
            "label": "Background",
            "name": "th_featured_background",
            "type": "image",
            "instructions": "Upload a background image",
            "required": 0,
            "conditional_logic": 0,
            "wrapper": {
                "width": "",
                "class": "",
                "id": ""
            }
        },
        {
            "placement": "left",
            "endpoint": 0,
            "key": "field_586443b084388",
            "label": "Chapter Follow Ups Section",
            "name": "",
            "type": "tab",
            "instructions": "",
            "required": 0,
            "conditional_logic": 0,
            "wrapper": {
                "width": "",
                "class": "",
                "id": ""
            }
        },
        {
            "default_value": "",
            "maxlength": "",
            "placeholder": "",
            "prepend": "",
            "append": "",
            "key": "field_586443b08443d",
            "label": "Title",
            "name": "title_1",
            "type": "text",
            "instructions": "Give this section a title",
            "required": 0,
            "conditional_logic": 0,
            "wrapper": {
                "width": "",
                "class": "",
                "id": ""
            },
            "readonly": 0,
            "disabled": 0
        },
        {
            "tabs": "text",
            "toolbar": "basic",
            "media_upload": 0,
            "default_value": "",
            "delay": 0,
            "key": "field_586443b0844be",
            "label": "Intro Content",
            "name": "th-section_intro_1",
            "type": "wysiwyg",
            "instructions": "Add the intro content for this section",
            "required": 0,
            "conditional_logic": 0,
            "wrapper": {
                "width": "",
                "class": "",
                "id": ""
            }
        },
        {
            "tabs": "text",
            "toolbar": "basic",
            "media_upload": 0,
            "default_value": "",
            "delay": 0,
            "key": "field_586443b08455d",
            "label": "Content Area 1",
            "name": "th_content_area_1",
            "type": "wysiwyg",
            "instructions": "Enter content for the first content area",
            "required": 0,
            "conditional_logic": 0,
            "wrapper": {
                "width": "",
                "class": "",
                "id": ""
            }
        },
        {
            "tabs": "text",
            "toolbar": "basic",
            "media_upload": 0,
            "default_value": "",
            "delay": 0,
            "key": "field_586443b084586",
            "label": "Content Area 2",
            "name": "th_content_area_2",
            "type": "wysiwyg",
            "instructions": "Enter content for the second content area",
            "required": 0,
            "conditional_logic": 0,
            "wrapper": {
                "width": "",
                "class": "",
                "id": ""
            }
        },
        {
            "return_format": "url",
            "preview_size": "thumbnail",
            "library": "all",
            "min_width": "",
            "min_height": "",
            "min_size": "",
            "max_width": 5120,
            "max_height": 2880,
            "max_size": "",
            "mime_types": "",
            "key": "field_586443b084620",
            "label": "Background Image",
            "name": "th-section_background_1",
            "type": "image",
            "instructions": "Upload a background image for this section",
            "required": 0,
            "conditional_logic": 0,
            "wrapper": {
                "width": "",
                "class": "",
                "id": ""
            }
        },
        {
            "placement": "left",
            "endpoint": 0,
            "key": "field_586443b084702",
            "label": "Training Center",
            "name": "",
            "type": "tab",
            "instructions": "",
            "required": 0,
            "conditional_logic": 0,
            "wrapper": {
                "width": "",
                "class": "",
                "id": ""
            }
        },
        {
            "default_value": "",
            "maxlength": "",
            "placeholder": "",
            "prepend": "",
            "append": "",
            "key": "field_586443b084728",
            "label": "Title",
            "name": "tc_title_1",
            "type": "text",
            "instructions": "Give this section a title",
            "required": 0,
            "conditional_logic": 0,
            "wrapper": {
                "width": "",
                "class": "",
                "id": ""
            }
        },
        {
            "tabs": "text",
            "toolbar": "basic",
            "media_upload": 0,
            "default_value": "",
            "delay": 0,
            "key": "field_586443b0847cd",
            "label": "Intro Content",
            "name": "tc_th-section_intro_1",
            "type": "wysiwyg",
            "instructions": "Add the intro content for this section",
            "required": 0,
            "conditional_logic": 0,
            "wrapper": {
                "width": "",
                "class": "",
                "id": ""
            }
        },
        {
            "tabs": "text",
            "toolbar": "basic",
            "media_upload": 0,
            "default_value": "",
            "delay": 0,
            "key": "field_586443b084801",
            "label": "Content Area 1",
            "name": "tc_th_content_area_1",
            "type": "wysiwyg",
            "instructions": "Enter content for the first content area",
            "required": 0,
            "conditional_logic": 0,
            "wrapper": {
                "width": "",
                "class": "",
                "id": ""
            }
        },
        {
            "tabs": "text",
            "toolbar": "basic",
            "media_upload": 0,
            "default_value": "",
            "delay": 0,
            "key": "field_586443b084831",
            "label": "Content Area 2",
            "name": "tc_th_content_area_2",
            "type": "wysiwyg",
            "instructions": "Enter content for the second content area",
            "required": 0,
            "conditional_logic": 0,
            "wrapper": {
                "width": "",
                "class": "",
                "id": ""
            }
        },
        {
            "return_format": "url",
            "preview_size": "thumbnail",
            "library": "all",
            "min_width": "",
            "min_height": "",
            "min_size": "",
            "max_width": 5120,
            "max_height": 2880,
            "max_size": "",
            "mime_types": "",
            "key": "field_586443b0848be",
            "label": "Background Image",
            "name": "tc_th-section_background_1",
            "type": "image",
            "instructions": "Upload a background image for this section",
            "required": 0,
            "conditional_logic": 0,
            "wrapper": {
                "width": "",
                "class": "",
                "id": ""
            }
        },
        {
            "placement": "left",
            "endpoint": 0,
            "key": "field_586443b08539b",
            "label": "1-on-1 Training",
            "name": "",
            "type": "tab",
            "instructions": "",
            "required": 0,
            "conditional_logic": 0,
            "wrapper": {
                "width": "",
                "class": "",
                "id": ""
            }
        },
        {
            "default_value": "",
            "maxlength": "",
            "placeholder": "",
            "prepend": "",
            "append": "",
            "key": "field_586443b0853e7",
            "label": "Title",
            "name": "one_title_1",
            "type": "text",
            "instructions": "Give this section a title",
            "required": 0,
            "conditional_logic": 0,
            "wrapper": {
                "width": "",
                "class": "",
                "id": ""
            }
        },
        {
            "tabs": "text",
            "toolbar": "basic",
            "media_upload": 0,
            "default_value": "",
            "delay": 0,
            "key": "field_586443b08547c",
            "label": "Intro Content",
            "name": "one_th-section_intro_1",
            "type": "wysiwyg",
            "instructions": "Add the intro content for this section",
            "required": 0,
            "conditional_logic": 0,
            "wrapper": {
                "width": "",
                "class": "",
                "id": ""
            }
        },
        {
            "tabs": "text",
            "toolbar": "basic",
            "media_upload": 0,
            "default_value": "",
            "delay": 0,
            "key": "field_586443b085505",
            "label": "Content Area 1",
            "name": "one_th_content_area_1",
            "type": "wysiwyg",
            "instructions": "Enter content for the first content area",
            "required": 0,
            "conditional_logic": 0,
            "wrapper": {
                "width": "",
                "class": "",
                "id": ""
            }
        },
        {
            "tabs": "text",
            "toolbar": "basic",
            "media_upload": 0,
            "default_value": "",
            "delay": 0,
            "key": "field_586443b085585",
            "label": "Content Area 2",
            "name": "one_th_content_area_2",
            "type": "wysiwyg",
            "instructions": "Enter content for the second content area",
            "required": 0,
            "conditional_logic": 0,
            "wrapper": {
                "width": "",
                "class": "",
                "id": ""
            }
        },
        {
            "return_format": "url",
            "preview_size": "thumbnail",
            "library": "all",
            "min_width": "",
            "min_height": "",
            "min_size": "",
            "max_width": 5120,
            "max_height": 2880,
            "max_size": "",
            "mime_types": "",
            "key": "field_586443b085692",
            "label": "Background Image",
            "name": "one_th-section_background_1",
            "type": "image",
            "instructions": "Upload a background image for this section",
            "required": 0,
            "conditional_logic": 0,
            "wrapper": {
                "width": "",
                "class": "",
                "id": ""
            }
        }
    ],
    "location": [
        [
            {
                "param": "page_template",
                "operator": "==",
                "value": "page-templates\/tathata-training-center.php"
            }
        ]
    ],
    "menu_order": 1,
    "position": "acf_after_title",
    "style": "default",
    "label_placement": "top",
    "instruction_placement": "label",
    "hide_on_screen": [
        "the_content",
        "excerpt",
        "custom_fields",
        "discussion",
        "comments",
        "revisions",
        "slug",
        "author",
        "format",
        "categories",
        "tags",
        "send-trackbacks"
    ],
    "active": 1,
    "description": "Manage content for the Tathata Training Center page.",
    "modified": 1482968994
}