{
    "key": "group_567ceff0c97ea",
    "title": "Page Hero Type",
    "fields": [
        {
            "placement": "left",
            "endpoint": 0,
            "key": "field_5726b0150e105",
            "label": "Select Hero Type",
            "name": "",
            "type": "tab",
            "instructions": "",
            "required": 0,
            "conditional_logic": 0,
            "wrapper": {
                "width": "",
                "class": "",
                "id": ""
            }
        },
        {
            "layout": "horizontal",
            "choices": {
                "none": "None",
                "banner": "Banner",
                "hero": "Hero",
                "slider": "Slider"
            },
            "default_value": "none",
            "other_choice": 0,
            "save_other_choice": 0,
            "allow_null": 0,
            "return_format": "value",
            "key": "field_5726b0320e106",
            "label": "Hero Type",
            "name": "hero_type",
            "type": "radio",
            "instructions": "Select if this page will have a Banner, Hero, or Slider",
            "required": 0,
            "conditional_logic": 0,
            "wrapper": {
                "width": "",
                "class": "",
                "id": ""
            }
        },
        {
            "placement": "left",
            "endpoint": 0,
            "key": "field_5726d08d2d1bc",
            "label": "Banner",
            "name": "",
            "type": "tab",
            "instructions": "",
            "required": 0,
            "conditional_logic": [
                [
                    {
                        "field": "field_5726b0320e106",
                        "operator": "==",
                        "value": "banner"
                    }
                ]
            ],
            "wrapper": {
                "width": "",
                "class": "",
                "id": ""
            }
        },
        {
            "default_value": "",
            "key": "field_5726d1332d1be",
            "label": "Background Color",
            "name": "banner_background_color",
            "type": "color_picker",
            "instructions": "Choose a background color for the Banner (recommended even if there is a background image). ",
            "required": 0,
            "conditional_logic": 0,
            "wrapper": {
                "width": "",
                "class": "",
                "id": ""
            }
        },
        {
            "layout": "horizontal",
            "choices": {
                "featured": "Featured Image",
                "upload": "Upload Image",
                "none": "No Background Image"
            },
            "default_value": "featured",
            "other_choice": 0,
            "save_other_choice": 0,
            "allow_null": 0,
            "return_format": "value",
            "key": "field_5726d4a791b33",
            "label": "Banner Background Source",
            "name": "banner_background_source",
            "type": "radio",
            "instructions": "Choose a source for the background image",
            "required": 0,
            "conditional_logic": 0,
            "wrapper": {
                "width": "",
                "class": "",
                "id": ""
            }
        },
        {
            "return_format": "url",
            "preview_size": "thumbnail",
            "library": "all",
            "min_width": 1024,
            "min_height": 100,
            "min_size": "",
            "max_width": 1920,
            "max_height": 1080,
            "max_size": "",
            "mime_types": "",
            "key": "field_5726d09d2d1bd",
            "label": "Background Image",
            "name": "banner_background_image",
            "type": "image",
            "instructions": "Upload a background image for the Banner",
            "required": 0,
            "conditional_logic": [
                [
                    {
                        "field": "field_5726d4a791b33",
                        "operator": "==",
                        "value": "upload"
                    }
                ]
            ],
            "wrapper": {
                "width": "",
                "class": "",
                "id": ""
            }
        },
        {
            "default_value": "",
            "maxlength": "",
            "placeholder": "An awesome title",
            "prepend": "",
            "append": "",
            "key": "field_5726d1542d1bf",
            "label": "Title",
            "name": "banner_title",
            "type": "text",
            "instructions": "Enter the primary Banner text (optional)",
            "required": 0,
            "conditional_logic": 0,
            "wrapper": {
                "width": "",
                "class": "",
                "id": ""
            },
            "readonly": 0,
            "disabled": 0
        },
        {
            "placement": "left",
            "endpoint": 0,
            "key": "field_5726b08b0e107",
            "label": "Hero",
            "name": "",
            "type": "tab",
            "instructions": "",
            "required": 0,
            "conditional_logic": [
                [
                    {
                        "field": "field_5726b0320e106",
                        "operator": "==",
                        "value": "hero"
                    }
                ]
            ],
            "wrapper": {
                "width": "",
                "class": "",
                "id": ""
            }
        },
        {
            "default_value": "",
            "key": "field_5726b1910e10c",
            "label": "Background Color",
            "name": "hero_background_color",
            "type": "color_picker",
            "instructions": "Choose a background color for the Hero (recommended even if there is a background image). ",
            "required": 0,
            "conditional_logic": 0,
            "wrapper": {
                "width": "",
                "class": "",
                "id": ""
            }
        },
        {
            "layout": "horizontal",
            "choices": {
                "featured": "Featured Image",
                "upload": "Upload Image",
                "none": "No Background Image"
            },
            "default_value": "featured",
            "other_choice": 0,
            "save_other_choice": 0,
            "allow_null": 0,
            "return_format": "value",
            "key": "field_5726d27dfae0d",
            "label": "Hero Background Source",
            "name": "hero_background_source",
            "type": "radio",
            "instructions": "Choose a source for the background image",
            "required": 0,
            "conditional_logic": 0,
            "wrapper": {
                "width": "",
                "class": "",
                "id": ""
            }
        },
        {
            "return_format": "url",
            "preview_size": "thumbnail",
            "library": "all",
            "min_width": 1024,
            "min_height": 500,
            "min_size": "",
            "max_width": 5120,
            "max_height": 2880,
            "max_size": "",
            "mime_types": "",
            "key": "field_5726b0a60e108",
            "label": "Background Image",
            "name": "hero_background_image",
            "type": "image",
            "instructions": "Upload a background image for the Hero",
            "required": 0,
            "conditional_logic": [
                [
                    {
                        "field": "field_5726d27dfae0d",
                        "operator": "==",
                        "value": "upload"
                    }
                ]
            ],
            "wrapper": {
                "width": "",
                "class": "",
                "id": ""
            }
        },
        {
            "default_value": "",
            "maxlength": "",
            "placeholder": "An awesome title",
            "prepend": "",
            "append": "",
            "key": "field_5726b0fa0e109",
            "label": "Title",
            "name": "hero_title",
            "type": "text",
            "instructions": "Enter the primary Hero text (optional)",
            "required": 0,
            "conditional_logic": 0,
            "wrapper": {
                "width": "",
                "class": "",
                "id": ""
            },
            "readonly": 0,
            "disabled": 0
        },
        {
            "tabs": "text",
            "toolbar": "basic",
            "media_upload": 0,
            "default_value": "",
            "delay": 0,
            "key": "field_5726b1220e10a",
            "label": "Content",
            "name": "hero_content",
            "type": "wysiwyg",
            "instructions": "Enter the content for the Hero",
            "required": 0,
            "conditional_logic": 0,
            "wrapper": {
                "width": "",
                "class": "",
                "id": ""
            }
        },
        {
            "return_format": "url",
            "preview_size": "thumbnail",
            "library": "all",
            "min_width": 100,
            "min_height": 100,
            "min_size": "",
            "max_width": 800,
            "max_height": 600,
            "max_size": "",
            "mime_types": "",
            "key": "field_5726b1470e10b",
            "label": "Content Image",
            "name": "hero_image",
            "type": "image",
            "instructions": "Upload a supporting image inside the Hero",
            "required": 0,
            "conditional_logic": 0,
            "wrapper": {
                "width": "",
                "class": "",
                "id": ""
            }
        },
        {
            "placement": "left",
            "endpoint": 0,
            "key": "field_567cf0011d427",
            "label": "Slider",
            "name": "",
            "type": "tab",
            "instructions": "",
            "required": 0,
            "conditional_logic": [
                [
                    {
                        "field": "field_5726b0320e106",
                        "operator": "==",
                        "value": "slider"
                    }
                ]
            ],
            "wrapper": {
                "width": "",
                "class": "",
                "id": ""
            }
        },
        {
            "sub_fields": [
                {
                    "default_value": "",
                    "key": "field_5726b38b0e10d",
                    "label": "Background Color",
                    "name": "slide_background_color",
                    "type": "color_picker",
                    "instructions": "Add a background color for your slide (recommended even if there is a background image).",
                    "required": 1,
                    "conditional_logic": 0,
                    "wrapper": {
                        "width": "",
                        "class": "",
                        "id": ""
                    }
                },
                {
                    "return_format": "url",
                    "preview_size": "thumbnail",
                    "library": "all",
                    "min_width": 1024,
                    "min_height": 512,
                    "min_size": "",
                    "max_width": 5120,
                    "max_height": 2880,
                    "max_size": "",
                    "mime_types": "",
                    "key": "field_567cf03c1d429",
                    "label": "Background Image",
                    "name": "slide_background_image",
                    "type": "image",
                    "instructions": "Upload a background image for the slide",
                    "required": 0,
                    "conditional_logic": 0,
                    "wrapper": {
                        "width": "",
                        "class": "",
                        "id": ""
                    }
                },
                {
                    "default_value": "",
                    "maxlength": "",
                    "placeholder": "An awesome title",
                    "prepend": "",
                    "append": "",
                    "key": "field_5726d0032d1b9",
                    "label": "Title",
                    "name": "slide_title",
                    "type": "text",
                    "instructions": "Enter the primary slide text",
                    "required": 1,
                    "conditional_logic": 0,
                    "wrapper": {
                        "width": "",
                        "class": "",
                        "id": ""
                    },
                    "readonly": 0,
                    "disabled": 0
                },
                {
                    "tabs": "text",
                    "toolbar": "basic",
                    "media_upload": 0,
                    "default_value": "",
                    "delay": 0,
                    "key": "field_5726d0282d1ba",
                    "label": "Content",
                    "name": "slide_content",
                    "type": "wysiwyg",
                    "instructions": "Enter content for the slide",
                    "required": 0,
                    "conditional_logic": 0,
                    "wrapper": {
                        "width": "",
                        "class": "",
                        "id": ""
                    }
                },
                {
                    "return_format": "url",
                    "preview_size": "thumbnail",
                    "library": "all",
                    "min_width": 300,
                    "min_height": 100,
                    "min_size": "",
                    "max_width": 800,
                    "max_height": 600,
                    "max_size": "",
                    "mime_types": "",
                    "key": "field_5726d04a2d1bb",
                    "label": "Content Image",
                    "name": "slide_image",
                    "type": "image",
                    "instructions": "Upload a supporting image inside the slide",
                    "required": 0,
                    "conditional_logic": 0,
                    "wrapper": {
                        "width": "",
                        "class": "",
                        "id": ""
                    }
                }
            ],
            "min": 0,
            "max": 0,
            "layout": "block",
            "button_label": "Add New Slide",
            "collapsed": "field_5726d0032d1b9",
            "key": "field_567cf0181d428",
            "label": "Slides",
            "name": "slider_slides",
            "type": "repeater",
            "instructions": "Add slides for the Slider",
            "required": 0,
            "conditional_logic": 0,
            "wrapper": {
                "width": "",
                "class": "",
                "id": ""
            }
        }
    ],
    "location": [
        [
            {
                "param": "post_type",
                "operator": "==",
                "value": "page"
            }
        ]
    ],
    "menu_order": 0,
    "position": "acf_after_title",
    "style": "default",
    "label_placement": "top",
    "instruction_placement": "label",
    "hide_on_screen": "",
    "active": 1,
    "description": "Manage if the page has a Banner, Hero, or Slider",
    "modified": 1482854815
}